{
    "output": {
        "blocklist": [],
        "equalizer#0": {
            "balance": 0.0,
            "bypass": false,
            "input-gain": -4.1,
            "left": {
                "band0": {
                    "frequency": 31.0,
                    "gain": 0.0,
                    "mode": "APO (DR)",
                    "mute": false,
                    "q": 1.409999966621399,
                    "slope": "x1",
                    "solo": false,
                    "type": "Bell",
                    "width": 4.0
                },
                "band1": {
                    "frequency": 62.0,
                    "gain": 0.0,
                    "mode": "APO (DR)",
                    "mute": false,
                    "q": 1.409999966621399,
                    "slope": "x1",
                    "solo": false,
                    "type": "Bell",
                    "width": 4.0
                },
                "band2": {
                    "frequency": 125.0,
                    "gain": 0.0,
                    "mode": "APO (DR)",
                    "mute": false,
                    "q": 1.409999966621399,
                    "slope": "x1",
                    "solo": false,
                    "type": "Bell",
                    "width": 4.0
                },
                "band3": {
                    "frequency": 250.0,
                    "gain": 0.0,
                    "mode": "APO (DR)",
                    "mute": false,
                    "q": 1.409999966621399,
                    "slope": "x1",
                    "solo": false,
                    "type": "Bell",
                    "width": 4.0
                },
                "band4": {
                    "frequency": 500.0,
                    "gain": 0.0,
                    "mode": "APO (DR)",
                    "mute": false,
                    "q": 1.409999966621399,
                    "slope": "x1",
                    "solo": false,
                    "type": "Bell",
                    "width": 4.0
                },
                "band5": {
                    "frequency": 1000.0,
                    "gain": 0.0,
                    "mode": "APO (DR)",
                    "mute": false,
                    "q": 1.409999966621399,
                    "slope": "x1",
                    "solo": false,
                    "type": "Bell",
                    "width": 4.0
                },
                "band6": {
                    "frequency": 2000.0,
                    "gain": 0.0,
                    "mode": "APO (DR)",
                    "mute": false,
                    "q": 1.409999966621399,
                    "slope": "x1",
                    "solo": false,
                    "type": "Bell",
                    "width": 4.0
                },
                "band7": {
                    "frequency": 4000.0,
                    "gain": 0.0,
                    "mode": "APO (DR)",
                    "mute": false,
                    "q": 1.409999966621399,
                    "slope": "x1",
                    "solo": false,
                    "type": "Bell",
                    "width": 4.0
                },
                "band8": {
                    "frequency": 8000.0,
                    "gain": 0.0,
                    "mode": "APO (DR)",
                    "mute": false,
                    "q": 1.409999966621399,
                    "slope": "x1",
                    "solo": false,
                    "type": "Bell",
                    "width": 4.0
                },
                "band9": {
                    "frequency": 16000.0,
                    "gain": 0.0,
                    "mode": "APO (DR)",
                    "mute": false,
                    "q": 1.409999966621399,
                    "slope": "x1",
                    "solo": false,
                    "type": "Bell",
                    "width": 4.0
                }
            },
            "mode": "FIR",
            "num-bands": 10,
            "output-gain": 7.7,
            "pitch-left": 0.0,
            "pitch-right": 0.0,
            "right": {
                "band0": {
                    "frequency": 31.0,
                    "gain": 0.0,
                    "mode": "APO (DR)",
                    "mute": false,
                    "q": 1.409999966621399,
                    "slope": "x1",
                    "solo": false,
                    "type": "Bell",
                    "width": 4.0
                },
                "band1": {
                    "frequency": 62.0,
                    "gain": 0.0,
                    "mode": "APO (DR)",
                    "mute": false,
                    "q": 1.409999966621399,
                    "slope": "x1",
                    "solo": false,
                    "type": "Bell",
                    "width": 4.0
                },
                "band2": {
                    "frequency": 125.0,
                    "gain": 0.0,
                    "mode": "APO (DR)",
                    "mute": false,
                    "q": 1.409999966621399,
                    "slope": "x1",
                    "solo": false,
                    "type": "Bell",
                    "width": 4.0
                },
                "band3": {
                    "frequency": 250.0,
                    "gain": 0.0,
                    "mode": "APO (DR)",
                    "mute": false,
                    "q": 1.409999966621399,
                    "slope": "x1",
                    "solo": false,
                    "type": "Bell",
                    "width": 4.0
                },
                "band4": {
                    "frequency": 500.0,
                    "gain": 0.0,
                    "mode": "APO (DR)",
                    "mute": false,
                    "q": 1.409999966621399,
                    "slope": "x1",
                    "solo": false,
                    "type": "Bell",
                    "width": 4.0
                },
                "band5": {
                    "frequency": 1000.0,
                    "gain": 0.0,
                    "mode": "APO (DR)",
                    "mute": false,
                    "q": 1.409999966621399,
                    "slope": "x1",
                    "solo": false,
                    "type": "Bell",
                    "width": 4.0
                },
                "band6": {
                    "frequency": 2000.0,
                    "gain": 0.0,
                    "mode": "APO (DR)",
                    "mute": false,
                    "q": 1.409999966621399,
                    "slope": "x1",
                    "solo": false,
                    "type": "Bell",
                    "width": 4.0
                },
                "band7": {
                    "frequency": 4000.0,
                    "gain": 0.0,
                    "mode": "APO (DR)",
                    "mute": false,
                    "q": 1.409999966621399,
                    "slope": "x1",
                    "solo": false,
                    "type": "Bell",
                    "width": 4.0
                },
                "band8": {
                    "frequency": 8000.0,
                    "gain": 0.0,
                    "mode": "APO (DR)",
                    "mute": false,
                    "q": 1.409999966621399,
                    "slope": "x1",
                    "solo": false,
                    "type": "Bell",
                    "width": 4.0
                },
                "band9": {
                    "frequency": 16000.0,
                    "gain": 0.0,
                    "mode": "APO (DR)",
                    "mute": false,
                    "q": 1.409999966621399,
                    "slope": "x1",
                    "solo": false,
                    "type": "Bell",
                    "width": 4.0
                }
            },
            "split-channels": false
        },
        "plugins_order": [
            "equalizer#0"
        ]
    }
}
