{
    "output": {
        "blocklist": [],
        "equalizer#0": {
            "balance": 0.0,
            "bypass": false,
            "input-gain": -4.1,
            "left": {
                "band0": {
                    "frequency": 31.0,
                    "gain": -1.2000000476837158,
                    "mode": "APO (DR)",
                    "mute": false,
                    "q": 1.409999966621399,
                    "slope": "x1",
                    "solo": false,
                    "type": "Bell"
                },
                "band1": {
                    "frequency": 62.0,
                    "gain": -0.20000000298023224,
                    "mode": "APO (DR)",
                    "mute": false,
                    "q": 1.409999966621399,
                    "slope": "x1",
                    "solo": false,
                    "type": "Bell"
                },
                "band2": {
                    "frequency": 125.0,
                    "gain": -5.300000190734863,
                    "mode": "APO (DR)",
                    "mute": false,
                    "q": 1.409999966621399,
                    "slope": "x1",
                    "solo": false,
                    "type": "Bell"
                },
                "band3": {
                    "frequency": 250.0,
                    "gain": 0.30000001192092896,
                    "mode": "APO (DR)",
                    "mute": false,
                    "q": 1.409999966621399,
                    "slope": "x1",
                    "solo": false,
                    "type": "Bell"
                },
                "band4": {
                    "frequency": 500.0,
                    "gain": 1.7000000476837158,
                    "mode": "APO (DR)",
                    "mute": false,
                    "q": 1.409999966621399,
                    "slope": "x1",
                    "solo": false,
                    "type": "Bell"
                },
                "band5": {
                    "frequency": 1000.0,
                    "gain": -0.8999999761581421,
                    "mode": "APO (DR)",
                    "mute": false,
                    "q": 1.409999966621399,
                    "slope": "x1",
                    "solo": false,
                    "type": "Bell"
                },
                "band6": {
                    "frequency": 2000.0,
                    "gain": 0.30000001192092896,
                    "mode": "APO (DR)",
                    "mute": false,
                    "q": 1.409999966621399,
                    "slope": "x1",
                    "solo": false,
                    "type": "Bell"
                },
                "band7": {
                    "frequency": 4000.0,
                    "gain": -0.10000000149011612,
                    "mode": "APO (DR)",
                    "mute": false,
                    "q": 1.409999966621399,
                    "slope": "x1",
                    "solo": false,
                    "type": "Bell"
                },
                "band8": {
                    "frequency": 8000.0,
                    "gain": 4.5,
                    "mode": "APO (DR)",
                    "mute": false,
                    "q": 1.409999966621399,
                    "slope": "x1",
                    "solo": false,
                    "type": "Bell"
                },
                "band9": {
                    "frequency": 16000.0,
                    "gain": -7.300000190734863,
                    "mode": "APO (DR)",
                    "mute": false,
                    "q": 1.409999966621399,
                    "slope": "x1",
                    "solo": false,
                    "type": "Bell"
                }
            },
            "mode": "FIR",
            "num-bands": 10,
            "output-gain": 7.7,
            "pitch-left": 0.0,
            "pitch-right": 0.0,
            "right": {
                "band0": {
                    "frequency": 31.0,
                    "gain": -1.2000000476837158,
                    "mode": "APO (DR)",
                    "mute": false,
                    "q": 1.409999966621399,
                    "slope": "x1",
                    "solo": false,
                    "type": "Bell"
                },
                "band1": {
                    "frequency": 62.0,
                    "gain": -0.20000000298023224,
                    "mode": "APO (DR)",
                    "mute": false,
                    "q": 1.409999966621399,
                    "slope": "x1",
                    "solo": false,
                    "type": "Bell"
                },
                "band2": {
                    "frequency": 125.0,
                    "gain": -5.300000190734863,
                    "mode": "APO (DR)",
                    "mute": false,
                    "q": 1.409999966621399,
                    "slope": "x1",
                    "solo": false,
                    "type": "Bell"
                },
                "band3": {
                    "frequency": 250.0,
                    "gain": 0.30000001192092896,
                    "mode": "APO (DR)",
                    "mute": false,
                    "q": 1.409999966621399,
                    "slope": "x1",
                    "solo": false,
                    "type": "Bell"
                },
                "band4": {
                    "frequency": 500.0,
                    "gain": 1.7000000476837158,
                    "mode": "APO (DR)",
                    "mute": false,
                    "q": 1.409999966621399,
                    "slope": "x1",
                    "solo": false,
                    "type": "Bell"
                },
                "band5": {
                    "frequency": 1000.0,
                    "gain": -0.8999999761581421,
                    "mode": "APO (DR)",
                    "mute": false,
                    "q": 1.409999966621399,
                    "slope": "x1",
                    "solo": false,
                    "type": "Bell"
                },
                "band6": {
                    "frequency": 2000.0,
                    "gain": 0.30000001192092896,
                    "mode": "APO (DR)",
                    "mute": false,
                    "q": 1.409999966621399,
                    "slope": "x1",
                    "solo": false,
                    "type": "Bell"
                },
                "band7": {
                    "frequency": 4000.0,
                    "gain": -0.10000000149011612,
                    "mode": "APO (DR)",
                    "mute": false,
                    "q": 1.409999966621399,
                    "slope": "x1",
                    "solo": false,
                    "type": "Bell"
                },
                "band8": {
                    "frequency": 8000.0,
                    "gain": 4.5,
                    "mode": "APO (DR)",
                    "mute": false,
                    "q": 1.409999966621399,
                    "slope": "x1",
                    "solo": false,
                    "type": "Bell"
                },
                "band9": {
                    "frequency": 16000.0,
                    "gain": -7.300000190734863,
                    "mode": "APO (DR)",
                    "mute": false,
                    "q": 1.409999966621399,
                    "slope": "x1",
                    "solo": false,
                    "type": "Bell"
                }
            },
            "split-channels": false
        },
        "plugins_order": [
            "equalizer#0"
        ]
    }
}
